17 Joining – COMP/STAT112 Notebook
…
Code
gpa_conversion <- tibble(
  grade = c("A+", "A", "A-", "B+", "B", "B-", "C+", "C", "C-", "D+", "D", "D-", "NC", "AU", "S"), 
  gp = c(4.3, 4, 3.7, 3.3, 3, 2.7, 2.3, 2, 1.7, 1.3, 1, 0.7, 0, NA, NA)
)

17.6.1 Part A

Code
courses |>
  group_by(dept) |>
  summarise(total_enroll = sum(enroll)) |>
  arrange(desc(total_enroll))

# A tibble: 40 × 2
   dept  total_enroll
   <chr>        <int>
 1 d             3046
 2 j             2312
 3 O             2178
 4 M             2129
 5 m             2105
 6 D             2003
 7 W             1960
 8 q             1859
 9 k             1824
10 F             1587
# ℹ 30 more rows

17.6.2 Part B

Code
grades |>
  left_join(gpa_conversion) |>
  group_by(sid) |>
  summarise(avg = mean(gp))

Joining with `by = join_by(grade)`

# A tibble: 443 × 2
   sid      avg
   <chr>  <dbl>
 1 S31185  2.41
 2 S31188 NA   
 3 S31191 NA   
 4 S31194  3.36
 5 S31197  3.35
 6 S31200  2.2 
 7 S31203  3.82
 8 S31206  2.46
 9 S31209 NA   
10 S31212  3.67
# ℹ 433 more rows
…
Joining with `by = join_by(sessionID)`

Warning in left_join(courses, grades): Detected an unexpected many-to-many relationship between `x` and `y`.
ℹ Row 57 of `x` matches multiple rows in `y`.
ℹ Row 1931 of `y` matches multiple rows in `x`.
ℹ If a many-to-many relationship is expected, set `relationship =
  "many-to-many"` to silence this warning.

Joining with `by = join_by(grade)`

# A tibble: 364 × 2
   iid     inst_avg
   <chr>      <dbl>
 1 inst265     1.3 
 2 inst444     1.7 
 3 inst513     1.85
 4 inst200     2   
 5 inst507     2.2 
 6 inst445     2.3 
 7 inst420     2.6 
 8 inst262     2.65
 9 inst176     2.66
10 inst234     2.7 
# ℹ 354 more rows
…
Joining with `by = join_by(sessionID)`

Warning in left_join(courses, grades): Detected an unexpected many-to-many relationship between `x` and `y`.
ℹ Row 57 of `x` matches multiple rows in `y`.
ℹ Row 1931 of `y` matches multiple rows in `x`.
ℹ If a many-to-many relationship is expected, set `relationship =
  "many-to-many"` to silence this warning.

Joining with `by = join_by(grade)`
Joining with `by = join_by(sessionID)`

# A tibble: 39 × 2
   dept  dept_gp
   <chr>   <dbl>
 1 o        3.08
 2 M        3.10
 3 K        3.17
 4 G        3.18
 5 B        3.2 
 6 J        3.22
 7 T        3.23
 8 b        3.25
 9 F        3.30
10 d        3.31
# ℹ 29 more rows
…
