14 Wrangling – COMP/STAT112 Notebook
…
Code
# effect of group_by() shown by summarize()
elections_small |>
  summarize(median_repub = median(repub_pct_20), total_votes = sum(total_votes_20)) 

  median_repub total_votes
1        68.29   157949293

Code
elections_small |>
  group_by(state_name) |>
  summarize(median_repub = median(repub_pct_20), total_votes = sum(total_votes_20)) 

# A tibble: 50 × 3
   state_name           median_repub total_votes
   <chr>                       <dbl>       <int>
 1 Alabama                      70.6     2323304
 2 Arizona                      57.9     3387326
 3 Arkansas                     72.1     1219069
 4 California                   44.8    17495906
 5 Colorado                     56.2     3256953
 6 Connecticut                  41.0     1824280
 7 Delaware                     47.1      504010
 8 District of Columbia          5.4      344356
 9 Florida                      64.6    11067456
10 Georgia                      68       4997716
# ℹ 40 more rows

14.9 Exercise 9

Code
# Sort the *states* from the most to least total votes cast in 2020
elections_small |>
  group_by(state_name) |>
  summarize(total_votes = sum(total_votes_20)) |>
  arrange(desc(total_votes))

# A tibble: 50 × 2
   state_name     total_votes
   <chr>                <int>
 1 California        17495906
 2 Texas             11317911
 3 Florida           11067456
 4 New York           8616205
 5 Pennsylvania       6925255
 6 Illinois           6038850
 7 Ohio               5922202
 8 Michigan           5539302
 9 North Carolina     5524801
10 Georgia            4997716
# ℹ 40 more rows

Code
# In 2020, what were the total number of votes for the Democratic candidate and the total number of votes for the Republican candidate in each *state*?
elections_small |>
  group_by(state_name) |>
  summarize(total_dem_votes = sum(dem_pct_20 * total_votes_20), total_repub_votes = sum(repub_pct_20 * total_votes_20))

# A tibble: 50 × 3
   state_name           total_dem_votes total_repub_votes
   <chr>                          <dbl>             <dbl>
 1 Alabama                    84966521.        144115325.
 2 Arizona                   167212561.        166167238.
 3 Arkansas                   42391888.         76063890.
 4 California               1110964299.        600603367.
 5 Colorado                  180439477.        136462476.
 6 Connecticut               108067747.         71531461.
 7 Delaware                   29627408.         20060118.
 8 District of Columbia       31732405.          1859522.
 9 Florida                   529712890.        566859937.
10 Georgia                   247365644.        246187098.
# ℹ 40 more rows

Code
# What states did the Democratic candidate win in 2020?
elections_small |>
  group_by(state_name) |>
  summarize(total_dem_votes = sum(dem_pct_20 * total_votes_20), total_repub_votes = sum(repub_pct_20 * total_votes_20)) |>
  filter(total_dem_votes > total_repub_votes)

# A tibble: 26 × 3
   state_name           total_dem_votes total_repub_votes
   <chr>                          <dbl>             <dbl>
 1 Arizona                   167212561.        166167238.
 2 California               1110964299.        600603367.
 3 Colorado                  180439477.        136462476.
 4 Connecticut               108067747.         71531461.
 5 Delaware                   29627408.         20060118.
 6 District of Columbia       31732405.          1859522.
 7 Georgia                   247365644.        246187098.
 8 Hawaii                     36612136.         19686564.
 9 Illinois                  347191761.        244692971.
10 Maine                      43046558.         35989788.
# ℹ 16 more rows
…
